This is BibTeX, Version 0.99d (TeX Live 2019/W32TeX)
Capacity: max_strings=100000, hash_size=100000, hash_prime=85009
The top-level auxiliary file: Thesis.aux
The style file: IEEEtran.bst
Reallocated singl_function (elt_size=4) to 100 items from 50.
Reallocated singl_function (elt_size=4) to 100 items from 50.
Reallocated singl_function (elt_size=4) to 100 items from 50.
Reallocated wiz_functions (elt_size=4) to 6000 items from 3000.
Reallocated singl_function (elt_size=4) to 100 items from 50.
Database file #1: Thesis.bib
I was expecting a `,' or a `}'---line 19 of file Thesis.bib
 :  
 :  Pages = {2018-2023}
(Error may have been on previous line)
I'm skipping whatever remains of this entry
-- IEEEtran.bst version 1.14 (2015/08/26) by Michael Shell.
-- http://www.michaelshell.org/tex/ieeetran/bibtex/
-- See the "IEEEtran_bst_HOWTO.pdf" manual for usage information.

Done.
You've used 6 entries,
            4087 wiz_defined-function locations,
            859 strings with 8368 characters,
and the built_in function-call counts, 3287 in all, are:
= -- 261
> -- 72
< -- 17
+ -- 38
- -- 14
* -- 155
:= -- 559
add.period$ -- 12
call.type$ -- 6
change.case$ -- 5
chr.to.int$ -- 39
cite$ -- 6
duplicate$ -- 245
empty$ -- 272
format.name$ -- 17
if$ -- 737
int.to.chr$ -- 0
int.to.str$ -- 6
missing$ -- 43
newline$ -- 41
num.names$ -- 6
pop$ -- 105
preamble$ -- 1
purify$ -- 0
quote$ -- 2
skip$ -- 250
stack$ -- 0
substring$ -- 96
swap$ -- 173
text.length$ -- 4
text.prefix$ -- 0
top$ -- 5
type$ -- 6
warning$ -- 0
while$ -- 13
width$ -- 7
write$ -- 74
(There was 1 error message)
